<?xml version="1.0" encoding="UTF-8" standalone="no"?>
<!DOCTYPE svg PUBLIC "-//W3C//DTD SVG 1.1//EN" "http://www.w3.org/Graphics/SVG/1.1/DTD/svg11.dtd">
<!-- Создано Microsoft Visio, экспорт SVG usecase.svg Page-1 -->
<svg xmlns="http://www.w3.org/2000/svg" xmlns:xlink="http://www.w3.org/1999/xlink" xmlns:ev="http://www.w3.org/2001/xml-events"
		xmlns:v="http://schemas.microsoft.com/visio/2003/SVGExtensions/" width="8.26772in" height="11.6929in"
		viewBox="0 0 595.276 841.89" xml:space="preserve" color-interpolation-filters="sRGB" class="st15">
	<v:documentProperties v:langID="1049" v:viewMarkup="false">
		<v:userDefs>
			<v:ud v:nameU="msvNoAutoConnect" v:val="VT0(1):26"/>
			<v:ud v:nameU="msvNoApplyDataGraphicAfterLink" v:val="VT0(1):5"/>
			<v:ud v:nameU="msvConvertTheme"/>
			<v:ud v:nameU="msvNoSubprocess" v:val="VT0(1):26"/>
			<v:ud v:nameU="DocShowPicture" v:prompt="" v:val="VT0(1):26"/>
		</v:userDefs>
	</v:documentProperties>

	<style type="text/css">
	<![CDATA[
		.st1 {marker-end:url(#mrkr4-6);stroke:#000000;stroke-dasharray:7,5;stroke-linecap:round;stroke-linejoin:round;stroke-width:1}
		.st2 {fill:#000000;fill-opacity:1;stroke:#000000;stroke-opacity:1;stroke-width:0.28409090909091}
		.st3 {fill:#ffffff}
		.st4 {stroke:#000000;stroke-linecap:round;stroke-linejoin:round;stroke-width:0.48}
		.st5 {fill:#000000;font-family:Arial;font-size:0.666664em}
		.st6 {fill:#cdcdcd;font-family:Arial;font-size:3em;font-weight:bold}
		.st7 {stroke:#000000;stroke-linecap:round;stroke-linejoin:round;stroke-width:0.72}
		.st8 {fill:#ffffff;stroke:#000000;stroke-linecap:round;stroke-linejoin:round;stroke-width:0.24}
		.st9 {fill:#000000;font-family:Arial;font-size:0.499992em}
		.st10 {font-size:1em}
		.st11 {marker-end:url(#mrkr3-82);stroke:#000000;stroke-dasharray:5.25,3.75;stroke-linecap:round;stroke-linejoin:round;stroke-width:0.75}
		.st12 {fill:#000000;fill-opacity:1;stroke:#000000;stroke-opacity:1;stroke-width:0.22935779816514}
		.st13 {fill:#ffffff;stroke:none;stroke-linecap:butt;stroke-width:7.2}
		.st14 {fill:#000000;font-family:Calibri;font-size:0.666664em}
		.st15 {fill:none;fill-rule:evenodd;font-size:12px;overflow:visible;stroke-linecap:square;stroke-miterlimit:3}
	]]>
	</style>

	<defs id="Markers">
		<g id="lend4">
			<path d="M 2 1 L 0 0 L 2 -1 L 2 1 " style="stroke:none"/>
		</g>
		<marker id="mrkr4-6" class="st2" v:arrowType="4" v:arrowSize="2" v:setback="7.04" refX="-7.04" orient="auto"
				markerUnits="strokeWidth" overflow="visible">
			<use xlink:href="#lend4" transform="scale(-3.52,-3.52) "/>
		</marker>
		<g id="lend3">
			<path d="M 2 1 L 0 0 L 2 -1 " style="stroke-linecap:round;stroke-linejoin:round;fill:none"/>
		</g>
		<marker id="mrkr3-82" class="st12" v:arrowType="3" v:arrowSize="2" orient="auto" markerUnits="strokeWidth"
				overflow="visible">
			<use xlink:href="#lend3" transform="scale(-4.36,-4.36) "/>
		</marker>
	</defs>
	<g v:mID="0" v:index="1" v:groupContext="foregroundPage">
		<v:userDefs>
			<v:ud v:nameU="UMLDiagramType" v:val="VT0(0):26"/>
			<v:ud v:nameU="UMLPageGUID" v:prompt="" v:val="VT15({1655E0EB-D1B4-4385-8245-450F3120D6B8}):41"/>
			<v:ud v:nameU="OrgChartStyle" v:prompt="" v:val="VT0(1):26"/>
		</v:userDefs>
		<title>Сценарий выполнения-1</title>
		<v:pageProperties v:drawingScale="0.0393701" v:pageScale="0.0393701" v:drawingUnits="24" v:shadowOffsetX="8.50394"
				v:shadowOffsetY="-8.50394"/>
		<v:layer v:name="Блок-схема" v:index="0"/>
		<v:layer v:name="Соединительная линия" v:index="1"/>
		<g id="shape177-1" v:mID="177" v:groupContext="shape" transform="translate(88.5827,-699.591)">
			<title>Пунктирная линия отчетности</title>
			<v:userDefs>
				<v:ud v:nameU="visVersion" v:val="VT0(15):26"/>
				<v:ud v:nameU="OrgChartStyle" v:prompt="" v:val="VT0(1):26"/>
			</v:userDefs>
			<path d="M0 841.89 L393.31 841.89 L393.31 1310.5" class="st1"/>
		</g>
		<g id="shape178-7" v:mID="178" v:groupContext="shape" transform="translate(85.0394,-698.74)">
			<title>Пунктирная линия отчетности.178</title>
			<v:userDefs>
				<v:ud v:nameU="visVersion" v:val="VT0(15):26"/>
				<v:ud v:nameU="OrgChartStyle" v:prompt="" v:val="VT0(1):26"/>
			</v:userDefs>
			<path d="M0 841.89 L0 1313.86 L389.81 1313.86" class="st1"/>
		</g>
		<g id="shape1-12" v:mID="1" v:groupContext="shape" transform="translate(37.964,-546.803)">
			<title>Актер</title>
			<desc>Пользователь</desc>
			<v:userDefs>
				<v:ud v:nameU="UMLShapeType" v:val="VT0(25):26"/>
				<v:ud v:nameU="UMLObjectGUID" v:val="VT4()"/>
				<v:ud v:nameU="UMLError" v:val="VT0(0):26"/>
				<v:ud v:nameU="UMLPresOption1" v:val="VT0(3):26"/>
				<v:ud v:nameU="UMLVersion" v:val="VT0(2):26"/>
				<v:ud v:nameU="visDescription" v:val="VT4(Обозначает актера, который взаимодействует со сценарием выполнения.)"/>
				<v:ud v:nameU="visVersion" v:val="VT0(12):26"/>
				<v:ud v:nameU="EnsureWidthOK" v:val="VT0(0.75):0"/>
				<v:ud v:nameU="DefaultWidth" v:val="VT0(0.31889763779528):24"/>
				<v:ud v:nameU="DefaultHeight" v:val="VT0(0.87007874015748):24"/>
				<v:ud v:nameU="Row_11" v:val="VT0(0):26"/>
				<v:ud v:nameU="UMLObjectGUID" v:prompt="" v:val="VT4({3717B91E-0969-4F5B-838F-B6C3A5B21874})"/>
			</v:userDefs>
			<v:textBlock v:margins="rect(4,4,4,4)" v:tabSpace="42.5197"/>
			<v:textRect cx="11.4803" cy="850.692" width="63.03" height="17.6036"/>
			<path d="M5.74 784.94 A5.74016 5.69506 0 0 1 17.22 784.94 A5.74016 5.69506 0 0 1 5.74 784.94 Z" class="st3"/>
			<path d="M0 796.33 L22.96 796.33" class="st4"/>
			<path d="M11.48 819.11 L22.96 841.89" class="st4"/>
			<path d="M11.48 790.63 L11.48 819.11 L0 841.89" class="st4"/>
			<path d="M5.74 784.94 A5.74016 5.69506 0 0 1 17.22 784.94 A5.74016 5.69506 0 0 1 5.74 784.94" class="st4"/>
			<text x="-14.92" y="853.09" class="st5" v:langID="1049"><v:paragraph v:horizAlign="1"/><v:tabList/>Пользователь</text>		</g>
		<g id="shape2-19" v:mID="2" v:groupContext="shape" transform="translate(82.4876,-841.89)">
			<title>Заголовок подложки</title>
			<desc>Сценарий выполнения</desc>
			<v:textBlock v:margins="rect(4,4,4,4)" v:tabSpace="42.5197"/>
			<v:textRect cx="215.15" cy="816.288" width="430.31" height="51.2036"/>
			<text x="9" y="827.09" class="st6" v:langID="1033"><v:paragraph v:horizAlign="1"/><v:tabList/>Сценарий выполнения</text>		</g>
		<g id="shape115-21" v:mID="115" v:groupContext="shape" transform="translate(38.9764,-305.858)">
			<title>Актер.115</title>
			<desc>Администратор</desc>
			<v:userDefs>
				<v:ud v:nameU="UMLShapeType" v:val="VT0(25):26"/>
				<v:ud v:nameU="UMLObjectGUID" v:val="VT4()"/>
				<v:ud v:nameU="UMLError" v:val="VT0(0):26"/>
				<v:ud v:nameU="UMLPresOption1" v:val="VT0(3):26"/>
				<v:ud v:nameU="UMLVersion" v:val="VT0(2):26"/>
				<v:ud v:nameU="visDescription" v:val="VT4(Обозначает актера, который взаимодействует со сценарием выполнения.)"/>
				<v:ud v:nameU="visVersion" v:val="VT0(12):26"/>
				<v:ud v:nameU="EnsureWidthOK" v:val="VT0(0.75):0"/>
				<v:ud v:nameU="DefaultWidth" v:val="VT0(0.31889763779528):24"/>
				<v:ud v:nameU="DefaultHeight" v:val="VT0(0.87007874015748):24"/>
				<v:ud v:nameU="Row_11" v:val="VT0(0):26"/>
				<v:ud v:nameU="UMLObjectGUID" v:prompt="" v:val="VT4({FB908A26-7A41-4508-9BAA-30ECCFAD9C61})"/>
			</v:userDefs>
			<v:textBlock v:margins="rect(4,4,4,4)" v:tabSpace="42.5197"/>
			<v:textRect cx="11.4803" cy="850.692" width="68.21" height="17.6036"/>
			<path d="M5.74 784.94 A5.74016 5.69506 0 0 1 17.22 784.94 A5.74016 5.69506 0 0 1 5.74 784.94 Z" class="st3"/>
			<path d="M0 796.33 L22.96 796.33" class="st4"/>
			<path d="M11.48 819.11 L22.96 841.89" class="st4"/>
			<path d="M11.48 790.63 L11.48 819.11 L0 841.89" class="st4"/>
			<path d="M5.74 784.94 A5.74016 5.69506 0 0 1 17.22 784.94 A5.74016 5.69506 0 0 1 5.74 784.94" class="st4"/>
			<text x="-17.51" y="853.09" class="st5" v:langID="1049"><v:paragraph v:horizAlign="1"/><v:tabList/>Администратор</text>		</g>
		<g id="shape6-28" v:mID="6" v:groupContext="shape" transform="translate(174.931,1328.31) rotate(177.56)">
			<title>Лист.6</title>
			<path d="M0 841.89 L77.22 841.89" class="st7"/>
		</g>
		<g id="shape7-31" v:mID="7" v:groupContext="shape" transform="translate(491.623,-473.853) rotate(30.7695)">
			<title>Лист.7</title>
			<path d="M0 841.89 L69.3 841.89" class="st7"/>
		</g>
		<g id="shape116-34" v:mID="116" v:groupContext="shape" v:layerMember="0" transform="translate(117.638,-637.795)">
			<title>Условное событие.119</title>
			<desc>Просмотреть уведомления о документах</desc>
			<v:userDefs>
				<v:ud v:nameU="visVersion" v:prompt="" v:val="VT0(15):26"/>
			</v:userDefs>
			<v:textBlock v:margins="rect(2,2,2,2)" v:tabSpace="42.5197"/>
			<v:textRect cx="40.3937" cy="829.678" width="80.79" height="24.4241"/>
			<ellipse cx="40.3937" cy="829.678" rx="40.3937" ry="12.212" class="st8"/>
			<text x="22.02" y="827.88" class="st9" v:langID="1049"><v:paragraph v:horizAlign="1"/><v:tabList/>Просмотреть  <tspan
						x="2.28" dy="1.2em" class="st10">уведомления о документах</tspan></text>		</g>
		<g id="shape118-38" v:mID="118" v:groupContext="shape" v:layerMember="0" transform="translate(127.559,-486.241)">
			<title>Условное событие.118</title>
			<desc>Загрузка документа в систему</desc>
			<v:userDefs>
				<v:ud v:nameU="visVersion" v:prompt="" v:val="VT0(15):26"/>
			</v:userDefs>
			<v:textBlock v:margins="rect(2,2,2,2)" v:tabSpace="42.5197"/>
			<v:textRect cx="39.685" cy="829.892" width="79.38" height="23.9956"/>
			<ellipse cx="39.685" cy="829.892" rx="39.685" ry="11.9978" class="st8"/>
			<text x="9.66" y="828.09" class="st9" v:langID="1049"><v:paragraph v:horizAlign="1"/><v:tabList/>Загрузка документа в <tspan
						x="28.4" dy="1.2em" class="st10">систему</tspan></text>		</g>
		<g id="shape119-42" v:mID="119" v:groupContext="shape" v:layerMember="0" transform="translate(126.992,-595.276)">
			<title>Условное событие.119</title>
			<desc>Поставить подпись</desc>
			<v:userDefs>
				<v:ud v:nameU="visVersion" v:prompt="" v:val="VT0(15):26"/>
			</v:userDefs>
			<v:textBlock v:margins="rect(2,2,2,2)" v:tabSpace="42.5197"/>
			<v:textRect cx="28.6299" cy="833.234" width="57.26" height="17.3111"/>
			<ellipse cx="28.6299" cy="833.234" rx="28.6299" ry="8.65556" class="st8"/>
			<text x="14.06" y="831.43" class="st9" v:langID="1049"><v:paragraph v:horizAlign="1"/><v:tabList/>Поставить <tspan
						x="17.22" dy="1.2em" class="st10">подпись</tspan></text>		</g>
		<g id="shape121-46" v:mID="121" v:groupContext="shape" v:layerMember="0" transform="translate(139.087,-340.909)">
			<title>Условное событие.121</title>
			<desc>Создать шаблон документа</desc>
			<v:userDefs>
				<v:ud v:nameU="visVersion" v:prompt="" v:val="VT0(15):26"/>
			</v:userDefs>
			<v:textBlock v:margins="rect(2,2,2,2)" v:tabSpace="42.5197"/>
			<v:textRect cx="45.6378" cy="828.092" width="91.28" height="27.5949"/>
			<ellipse cx="45.6378" cy="828.092" rx="45.6378" ry="13.7975" class="st8"/>
			<text x="22.37" y="826.29" class="st9" v:langID="1049"><v:paragraph v:horizAlign="1"/><v:tabList/>Создать шаблон<v:newlineChar/><tspan
						x="30.14" dy="1.2em" class="st10"> </tspan>документа</text>		</g>
		<g id="shape122-50" v:mID="122" v:groupContext="shape" v:layerMember="0" transform="translate(144.567,-302.252)">
			<title>Условное событие.122</title>
			<desc>Присвоить пользователю электронную подпись</desc>
			<v:userDefs>
				<v:ud v:nameU="visVersion" v:prompt="" v:val="VT0(15):26"/>
			</v:userDefs>
			<v:textBlock v:margins="rect(2,2,2,2)" v:tabSpace="42.5197"/>
			<v:textRect cx="43.937" cy="828.606" width="87.88" height="26.5666"/>
			<ellipse cx="43.937" cy="828.606" rx="43.937" ry="13.2833" class="st8"/>
			<text x="8.27" y="826.81" class="st9" v:langID="1049"><v:paragraph v:horizAlign="1"/><v:tabList/>Присвоить пользователю <tspan
						x="13.66" dy="1.2em" class="st10">электронную подпись</tspan></text>		</g>
		<g id="shape123-54" v:mID="123" v:groupContext="shape" transform="translate(-190.779,1298.57) rotate(-156.526)">
			<title>Лист.123</title>
			<path d="M0 841.89 L90.08 841.89" class="st7"/>
		</g>
		<g id="shape131-57" v:mID="131" v:groupContext="shape" transform="translate(-539.205,-340.916) rotate(-45.4662)">
			<title>Лист.131</title>
			<path d="M0 841.89 L80.87 841.89" class="st7"/>
		</g>
		<g id="shape132-60" v:mID="132" v:groupContext="shape" transform="translate(-84.27,-579.749) rotate(-9.93104)">
			<title>Лист.132</title>
			<path d="M0 841.89 L67.07 841.89" class="st7"/>
		</g>
		<g id="shape133-63" v:mID="133" v:groupContext="shape" transform="translate(748.057,-236.918) rotate(54.704)">
			<title>Лист.133</title>
			<path d="M0 841.89 L115.32 841.89" class="st7"/>
		</g>
		<g id="shape145-66" v:mID="145" v:groupContext="shape" v:layerMember="0" transform="translate(120.472,-546.839)">
			<title>Условное событие.145</title>
			<desc>Принять решение по документу</desc>
			<v:userDefs>
				<v:ud v:nameU="visVersion" v:prompt="" v:val="VT0(15):26"/>
			</v:userDefs>
			<v:textBlock v:margins="rect(2,2,2,2)" v:tabSpace="42.5197"/>
			<v:textRect cx="33.3071" cy="831.82" width="66.62" height="20.1392"/>
			<ellipse cx="33.3071" cy="831.82" rx="33.3071" ry="10.0696" class="st8"/>
			<text x="4.22" y="830.02" class="st9" v:langID="1049"><v:paragraph v:horizAlign="1"/><v:tabList/>Принять решение по <tspan
						x="18.81" dy="1.2em" class="st10">документу</tspan></text>		</g>
		<g id="shape148-70" v:mID="148" v:groupContext="shape" v:layerMember="0" transform="translate(135.496,-384.549)">
			<title>Условное событие.148</title>
			<desc>Изменить параметры шаблона документа</desc>
			<v:userDefs>
				<v:ud v:nameU="visVersion" v:prompt="" v:val="VT0(15):26"/>
			</v:userDefs>
			<v:textBlock v:margins="rect(2,2,2,2)" v:tabSpace="42.5197"/>
			<v:textRect cx="48.4724" cy="827.235" width="96.95" height="29.3089"/>
			<ellipse cx="48.4724" cy="827.235" rx="48.4724" ry="14.6545" class="st8"/>
			<text x="5.18" y="825.44" class="st9" v:langID="1049"><v:paragraph v:horizAlign="1"/><v:tabList/>Изменить параметры шаблона <tspan
						x="33.81" dy="1.2em" class="st10">документа</tspan></text>		</g>
		<g id="shape149-74" v:mID="149" v:groupContext="shape" transform="translate(594.125,1148.69) rotate(146.992)">
			<title>Лист.149</title>
			<path d="M0 841.89 L87.72 841.89" class="st7"/>
		</g>
		<g id="shape180-77" v:mID="180" v:groupContext="shape" v:layerMember="1" transform="translate(161.787,-595.276)">
			<title>Динамическая соединительная линия.180</title>
			<desc>Include</desc>
			<v:textBlock v:margins="rect(4,4,4,4)" v:tabSpace="42.5197"/>
			<v:textRect cx="-4.67743" cy="857.144" width="40" height="17.6036"/>
			<path d="M-6.17 841.89 L-8.01 870.19" class="st11"/>
			<rect v:rectContext="textBkgnd" x="-16.5893" y="852.344" width="23.8239" height="9.59985" class="st13"/>
			<text x="-16.59" y="859.54" class="st14" v:langID="1033"><v:paragraph v:horizAlign="1"/><v:tabList/>Include</text>		</g>
	</g>
</svg>
